{
    "openapi": "3.0.3",
    "info": {
      "title": "node-mqtt-demo",
      "description": "A simple demo MQTT",
      "version": "1.0.0",
      "contact": {
        "name": "Yogeetha Patel K N",
        "email": "Yogeetha.Patel@LTTS.com"
      }
    },
    "tags":{
        "name":"MQTT Demo"
    },
    "paths":{
        "/api/postOperationStatus": {
            "post":{
                "tags":["MQTT Demo"],
                "description": "Start and Stop Publishing message to Client",
                "operationId": "",
                "parameters":[{
                    "name": "mode",
                    "type":"string",
                    "description":"Start | Stop"
                }],
                "requestBody": {
                    "content":{
                        "application/json": {
                            "schema":{
                                   "properties":{
                                       "mode":{
                                           "type":"string",
                                           "description":"Two operation mode Start | Stop",
                                           "example": "Start"
                                       }
                                   }
                            }
                        }
                    }
                },
                "responses":{
                    "200":{
                        "description": "Successfully"
                    },
                    "500":{
                        "description": "Internal Server error"
                    }
                }
            }
        },
        "/api/getClientStatus": {
            "get":{
                "tags":["MQTT Demo"],
                "description": "Get the Client Status",
                "operationId": "",
                "parameters":[],
                "requestBody": {                 
                },
                "responses":{
                    "200":{
                        "description": "Success"
                    },
                    "500":{
                        "description": "Internal Server error"
                    }
                }
            }
        }
    }
}